…
#'        is added, it can be added to function in an else if
#'
#' @param county.data data.frame in which one column is "county_fips" and other columns
#'                     are data to cluster by
#' @param cluster.method method to be used to cluster counties. One of set {"kmeans", "diana"}
#' @param cluster.num optional argument used by clustering methods where you must provide
#'                      desired number of clusters (e.g. kmeans)
#' @param seed random seed to be used by clustering algorithm
#'
#' @return a tribble with (num counties in state) rows and two columns:
#'    county_fips: unique identifier for each county
#'    cluster: number corresponding to cluster county belongs to
#'    
#'    e.g.
#'    # A tibble: 67 x 2
#'    county_fips cluster
#'    <chr>       <chr>  
#'  1 01001       1      
#'  2 01003       4      
#'  3 01005       2      
#'  4 01007       4      
#'  5 01009       4      
#'  6 01011       2      
#'  7 01013       2      
#'  8 01015       1      
#'  9 01017       1      
#'  10 01019       4      
#'  # … with 57 more rows
…
